{
  "codigo": 200,
  "mensaje": "datos correcto",
  "clsubservicio": "372",
  "datos": [
    {
      "dsCampo": "Geo origen",
      "numeroCampo": 0,
      "tipoCampo": 1
    },
    {
      "dsCampo": "Geo destino",
      "numeroCampo": 1,
      "tipoCampo": 1
    },
    {
      "dsCampo": "Auto",
      "numeroCampo": 0,
      "tipoCampo": 2
    },
    {
      "dsCampo": "Referencias visuales origen",
      "numeroCampo": 0,
      "tipoCampo": 3
    }
  ]
}