{
  "codigo": 200,
  "mensaje": "datos correcto",
  "clsubservicio": "1046",
  "datos": [
    {
      "dsCampo": "Geo origen",
      "numeroCampo": 0,
      "tipoCampo": 1
    },
    {
      "dsCampo": "Geo destino",
      "numeroCampo": 1,
      "tipoCampo": 1
    },
    {
      "dsCampo": "Auto",
      "numeroCampo": 0,
      "tipoCampo": 2
    },
    {
      "dsCampo": "Referencias visuales origen",
      "numeroCampo": 0,
      "tipoCampo": 3
    },
    {
      "dsCampo": "Referencias Visuales destino",
      "numeroCampo": 1,
      "tipoCampo": 3
    },
    {
      "dsCampo": "¿El vehiculo es automatico?",
      "numeroCampo": 0,
      "tipoCampo": 5
    },
    {
      "dsCampo": "¿El vehiculo esta en sotano?",
      "numeroCampo": 1,
      "tipoCampo": 5
    },
    {
      "dsCampo": "¿Hay alguna llanta bloqeada?",
      "numeroCampo": 2,
      "tipoCampo": 5
    },
    {
      "dsCampo": "¿El vehiculo tiene blindaje?",
      "numeroCampo": 3,
      "tipoCampo": 5
    },
    {
      "dsCampo": "¿Es moto?",
      "numeroCampo": 4,
      "tipoCampo": 5
    },
    {
      "dsCampo": "¿El vehiculos es bus de carga (Pesado)?",
      "numeroCampo": 5,
      "tipoCampo": 5
    },
    {
      "dsCampo": "¿El servicio tiene cita programada?",
      "numeroCampo": 6,
      "tipoCampo": 5
    }
  ]
}